#######################################################################
# Pax Runner Profile for                                              #
# Apache Felix Service Component Runtime (Declarative Services) 1.4.0 #
#######################################################################

scan-bundle:mvn:org.apache.felix/org.apache.felix.configadmin/1.2.4
scan-bundle:mvn:org.apache.felix/org.apache.felix.scr/1.4.0
